[
    {
        "name": "Email",
        "link": "mailto:prav@fsci.in",
        "image": "images/envelope.svg"
    },
    {
	"name": "Webchat/IRC",
	"link": "https://webchat.pirateirc.net/?channels=#prav",
	"image": "/images/chat.svg"
    },
    {
        "name": "Fediverse",
        "link": "https://venera.social/profile/prav",
        "image": "images/Friendica_Logo.svg"
    },
    {
        "name": "XMPP/Quicksy",
        "link": "https://join.jabber.network/#prav@chat.disroot.org?join",
        "image": "images/xmpp.svg"
    },
    {
	"name": "Matrix",
	"link": "https://matrix.to/#/#prav:poddery.com",
	"image": "/images/matrix.svg"
    },
    {
	"name": "Videos",
	"link": "https://videos.fsci.in/video-channels/prav_channel/videos",
	"image": "/images/peertube.png"
    },
    {
	"name": "Source code",
	"link": "/android-app-development",
	"image": "/images/codeberg-logo.png"
    },
    {
	"name": "Development",
	"link": "https://matrix.to/#/#_bifrost_prav-devel_chat.disroot.org:aria-net.org",
	"image": "/images/matrix.svg"
    }
]
